%YAML 1.1
%TAG !u! tag:unity3d.com,2011:
--- !u!1 &4736410744694181487
GameObject:
  m_ObjectHideFlags: 0
  m_CorrespondingSourceObject: {fileID: 0}
  m_PrefabInstance: {fileID: 0}
  m_PrefabAsset: {fileID: 0}
  serializedVersion: 6
  m_Component:
  - component: {fileID: 9134620695257617455}
  m_Layer: 0
  m_Name: CrossWalk_01
  m_TagString: Untagged
  m_Icon: {fileID: 0}
  m_NavMeshLayer: 0
  m_StaticEditorFlags: 0
  m_IsActive: 1
--- !u!4 &9134620695257617455
Transform:
  m_ObjectHideFlags: 0
  m_CorrespondingSourceObject: {fileID: 0}
  m_PrefabInstance: {fileID: 0}
  m_PrefabAsset: {fileID: 0}
  m_GameObject: {fileID: 4736410744694181487}
  m_LocalRotation: {x: 0, y: 0, z: 0, w: 1}
  m_LocalPosition: {x: 0, y: 0, z: 0}
  m_LocalScale: {x: 1, y: 1, z: 1}
  m_Children:
  - {fileID: 6049806234162712701}
  - {fileID: 5729332418171061324}
  m_Father: {fileID: 0}
  m_RootOrder: 0
  m_LocalEulerAnglesHint: {x: 0, y: 0, z: 0}
--- !u!1001 &5732518153636407398
PrefabInstance:
  m_ObjectHideFlags: 0
  serializedVersion: 2
  m_Modification:
    m_TransformParent: {fileID: 9134620695257617455}
    m_Modifications:
    - target: {fileID: 1860642975754898, guid: 438a38d2a91e6614a8192a9004a52c5b, type: 3}
      propertyPath: m_Name
      value: SM_Prop_Greeble_Panel_01 (1)
      objectReference: {fileID: 0}
    - target: {fileID: 4314044849630250, guid: 438a38d2a91e6614a8192a9004a52c5b, type: 3}
      propertyPath: m_LocalPosition.x
      value: -2.492
      objectReference: {fileID: 0}
    - target: {fileID: 4314044849630250, guid: 438a38d2a91e6614a8192a9004a52c5b, type: 3}
      propertyPath: m_LocalPosition.y
      value: 0.047308758
      objectReference: {fileID: 0}
    - target: {fileID: 4314044849630250, guid: 438a38d2a91e6614a8192a9004a52c5b, type: 3}
      propertyPath: m_LocalPosition.z
      value: -4.1
      objectReference: {fileID: 0}
    - target: {fileID: 4314044849630250, guid: 438a38d2a91e6614a8192a9004a52c5b, type: 3}
      propertyPath: m_LocalRotation.x
      value: 0
      objectReference: {fileID: 0}
    - target: {fileID: 4314044849630250, guid: 438a38d2a91e6614a8192a9004a52c5b, type: 3}
      propertyPath: m_LocalRotation.y
      value: 0.7071068
      objectReference: {fileID: 0}
    - target: {fileID: 4314044849630250, guid: 438a38d2a91e6614a8192a9004a52c5b, type: 3}
      propertyPath: m_LocalRotation.z
      value: 0
      objectReference: {fileID: 0}
    - target: {fileID: 4314044849630250, guid: 438a38d2a91e6614a8192a9004a52c5b, type: 3}
      propertyPath: m_LocalRotation.w
      value: 0.7071068
      objectReference: {fileID: 0}
    - target: {fileID: 4314044849630250, guid: 438a38d2a91e6614a8192a9004a52c5b, type: 3}
      propertyPath: m_RootOrder
      value: 1
      objectReference: {fileID: 0}
    - target: {fileID: 4314044849630250, guid: 438a38d2a91e6614a8192a9004a52c5b, type: 3}
      propertyPath: m_LocalEulerAnglesHint.x
      value: 0
      objectReference: {fileID: 0}
    - target: {fileID: 4314044849630250, guid: 438a38d2a91e6614a8192a9004a52c5b, type: 3}
      propertyPath: m_LocalEulerAnglesHint.y
      value: 90
      objectReference: {fileID: 0}
    - target: {fileID: 4314044849630250, guid: 438a38d2a91e6614a8192a9004a52c5b, type: 3}
      propertyPath: m_LocalEulerAnglesHint.z
      value: 0
      objectReference: {fileID: 0}
    - target: {fileID: 4314044849630250, guid: 438a38d2a91e6614a8192a9004a52c5b, type: 3}
      propertyPath: m_LocalScale.x
      value: 0.42190403
      objectReference: {fileID: 0}
    - target: {fileID: 4314044849630250, guid: 438a38d2a91e6614a8192a9004a52c5b, type: 3}
      propertyPath: m_LocalScale.z
      value: 1.050215
      objectReference: {fileID: 0}
    m_RemovedComponents: []
  m_SourcePrefab: {fileID: 100100000, guid: 438a38d2a91e6614a8192a9004a52c5b, type: 3}
--- !u!4 &5729332418171061324 stripped
Transform:
  m_CorrespondingSourceObject: {fileID: 4314044849630250, guid: 438a38d2a91e6614a8192a9004a52c5b,
    type: 3}
  m_PrefabInstance: {fileID: 5732518153636407398}
  m_PrefabAsset: {fileID: 0}
--- !u!1001 &6051264698533870679
PrefabInstance:
  m_ObjectHideFlags: 0
  serializedVersion: 2
  m_Modification:
    m_TransformParent: {fileID: 9134620695257617455}
    m_Modifications:
    - target: {fileID: 1860642975754898, guid: 438a38d2a91e6614a8192a9004a52c5b, type: 3}
      propertyPath: m_Name
      value: SM_Prop_Greeble_Panel_01
      objectReference: {fileID: 0}
    - target: {fileID: 4314044849630250, guid: 438a38d2a91e6614a8192a9004a52c5b, type: 3}
      propertyPath: m_LocalPosition.x
      value: -2.492
      objectReference: {fileID: 0}
    - target: {fileID: 4314044849630250, guid: 438a38d2a91e6614a8192a9004a52c5b, type: 3}
      propertyPath: m_LocalPosition.y
      value: 0.047308758
      objectReference: {fileID: 0}
    - target: {fileID: 4314044849630250, guid: 438a38d2a91e6614a8192a9004a52c5b, type: 3}
      propertyPath: m_LocalPosition.z
      value: -0.924
      objectReference: {fileID: 0}
    - target: {fileID: 4314044849630250, guid: 438a38d2a91e6614a8192a9004a52c5b, type: 3}
      propertyPath: m_LocalRotation.x
      value: 0
      objectReference: {fileID: 0}
    - target: {fileID: 4314044849630250, guid: 438a38d2a91e6614a8192a9004a52c5b, type: 3}
      propertyPath: m_LocalRotation.y
      value: 0.7071068
      objectReference: {fileID: 0}
    - target: {fileID: 4314044849630250, guid: 438a38d2a91e6614a8192a9004a52c5b, type: 3}
      propertyPath: m_LocalRotation.z
      value: 0
      objectReference: {fileID: 0}
    - target: {fileID: 4314044849630250, guid: 438a38d2a91e6614a8192a9004a52c5b, type: 3}
      propertyPath: m_LocalRotation.w
      value: 0.7071068
      objectReference: {fileID: 0}
    - target: {fileID: 4314044849630250, guid: 438a38d2a91e6614a8192a9004a52c5b, type: 3}
      propertyPath: m_RootOrder
      value: 0
      objectReference: {fileID: 0}
    - target: {fileID: 4314044849630250, guid: 438a38d2a91e6614a8192a9004a52c5b, type: 3}
      propertyPath: m_LocalEulerAnglesHint.x
      value: 0
      objectReference: {fileID: 0}
    - target: {fileID: 4314044849630250, guid: 438a38d2a91e6614a8192a9004a52c5b, type: 3}
      propertyPath: m_LocalEulerAnglesHint.y
      value: 90
      objectReference: {fileID: 0}
    - target: {fileID: 4314044849630250, guid: 438a38d2a91e6614a8192a9004a52c5b, type: 3}
      propertyPath: m_LocalEulerAnglesHint.z
      value: 0
      objectReference: {fileID: 0}
    - target: {fileID: 4314044849630250, guid: 438a38d2a91e6614a8192a9004a52c5b, type: 3}
      propertyPath: m_LocalScale.x
      value: 0.42190403
      objectReference: {fileID: 0}
    - target: {fileID: 4314044849630250, guid: 438a38d2a91e6614a8192a9004a52c5b, type: 3}
      propertyPath: m_LocalScale.z
      value: 1.050215
      objectReference: {fileID: 0}
    m_RemovedComponents: []
  m_SourcePrefab: {fileID: 100100000, guid: 438a38d2a91e6614a8192a9004a52c5b, type: 3}
--- !u!4 &6049806234162712701 stripped
Transform:
  m_CorrespondingSourceObject: {fileID: 4314044849630250, guid: 438a38d2a91e6614a8192a9004a52c5b,
    type: 3}
  m_PrefabInstance: {fileID: 6051264698533870679}
  m_PrefabAsset: {fileID: 0}
