# Object Export From Tinkercad Server 2015

mtllib obj.mtl

o obj_0
v -9.99 		21.5 		0
v -12 		29 		0
v -9.99 		36.5 		0
v -8 		29 		0
v -5.003 		29 		0
v -9.99 		36.5 		1.3
v -12 		29 		1.3
v -9.99 		21.5 		1.3
v 10.023 		37.003 		1.3
v -3.93 		33.001 		0
v 9.602 		37.424 		1.3
v 12.526 		34.5 		1.3
v 12.526 		34.5 		1.375
v 8.5 		38.526 		1.3
v -8 		29 		1.3
v 8.5 		38.526 		1.375
v 3 		25.998 		0
v 8.002 		29 		1.3
v 0.499 		33.332 		1.3
v -5.003 		36.023 		0
v -5 		36.026 		0
v -4.026 		37 		0
v -4.023 		37.003 		0
v -1.33 		26.5 		0
v -1.33 		26.5 		1.3
v 6.003 		29 		0
v -3.603 		37.423 		0
v -4.024 		20.998 		0
v -0.003 		29 		0
v -0.003 		29 		1.3
v -5.003 		21.977 		0
v -6.526 		23.5 		0
v -6.526 		34.5 		0
v 3 		32.002 		1.3
v -4.5 		41.99 		1.3
v -4.5 		41.99 		0
v 7.33 		31.5 		0
v -4.5 		16.01 		0
v 7.332 		26.499 		1.3
v 0.5 		24.67 		0
v -4.5 		16.01 		1.3
v 3 		34 		1.3
v 0.5 		33.33 		1.3
v 5.5 		33.33 		1.3
v 7.33 		26.5 		0
v -1.159 		26.599 		-0.3
v 5.501 		33.332 		1.3
v 5.5 		24.67 		0
v -1.803 		29 		-0.3
v 3 		24 		0
v -1.159 		31.401 		-0.3
v 5.5 		33.33 		0
v 7.332 		31.501 		1.3
v -1 		35.928 		-0.3
v 9.93 		24.999 		0
v -1 		22.072 		-0.3
v -1.001 		35.93 		1.375
v -2.5 		38.526 		1.375
v -1.001 		22.07 		1.375
v 3 		34 		0
v -3.928 		25 		-0.3
v -5 		29 		-0.3
v -3.928 		33 		-0.3
v 6.003 		29 		1.3
v -2.5 		19.474 		1.375
v 12.526 		23.5 		0
v 11.424 		22.398 		0
v 0.5 		33.33 		0
v -3.93 		24.999 		1.375
v 3 		20.998 		0
v -5.003 		29 		1.375
v -3.93 		33.001 		1.375
v 0.5 		24.67 		1.3
v 3 		24 		1.3
v -1 		35.928 		1.3
v 7.33 		31.5 		1.3
v -6.526 		34.5 		1.375
v 7.001 		22.07 		0
v 3 		25.998 		1.3
v -8 		29 		1.375
v -6.526 		23.5 		1.375
v 7.33 		26.5 		1.3
v 8 		29 		1.3
v 3 		32.002 		0
v -2.5 		38.526 		1.3
v 10.026 		21 		0
v 10.024 		20.998 		0
v 11.003 		21.977 		0
v 11 		21.974 		0
v -1.001 		35.93 		0
v 3 		37 		1.3
v 8 		29 		0
v 8.5 		19.474 		0
v 3 		18 		0
v 15.99 		21.5 		1.3
v 15.99 		21.5 		0
v -1 		22.072 		1.3
v 3 		37.003 		0
v 3 		37.003 		1.375
v 7.001 		35.93 		0
v 9.93 		24.999 		1.375
v -1.001 		22.07 		0
v 12.526 		23.5 		1.375
v 3 		20.998 		1.375
v -1.159 		26.599 		-0.003
v 1.499 		26.4 		1.3
v -6.526 		34.5 		1.3
v -4.023 		37.003 		1.3
v -3.603 		37.423 		1.3
v 7.001 		22.07 		1.375
v 0.4 		27.499 		1.3
v -3.928 		33 		1.3
v -5 		29 		1.3
v -3.928 		25 		1.3
v 0.4 		30.501 		1.3
v -1.803 		29 		-0.003
v 3 		18 		1.375
v 8.5 		19.474 		1.375
v 1.499 		31.6 		1.3
v 8.5 		19.474 		1.3
v 3 		18 		1.3
v -1.332 		26.499 		-0.003
v -6.526 		23.5 		1.3
v 4.501 		31.6 		1.3
v 12.526 		23.5 		1.3
v 11.424 		22.398 		1.3
v 11.003 		21.977 		1.3
v 5.6 		30.501 		1.3
v 5.6 		27.499 		1.3
v 8.5 		38.526 		0
v -1.159 		31.401 		-0.003
v 9.602 		37.424 		0
v 4.501 		26.4 		1.3
v 9.93 		33.001 		0
v -3.93 		24.999 		0
v 11 		36.026 		0
v 11.003 		36.023 		0
v 11.003 		29 		0
v 10.023 		37.003 		0
v 10.026 		37 		0
v 3 		23.998 		1.3
v -1.332 		31.501 		-0.003
v -2.003 		29 		-0.003
v 12.526 		34.5 		0
v 14 		29 		0
v 5.501 		24.668 		1.3
v 3 		44 		0
v 3 		40 		0
v 10.5 		16.01 		0
v 3 		14 		0
v 3 		14 		1.3
v 10.5 		16.01 		1.3
v -2.5 		38.526 		0
v 0.599 		24.841 		-0.3
v 3 		24.197 		-0.3
v 3 		32 		1.2
v 1.5 		31.598 		1.2
v 0.402 		30.5 		1.2
v 0 		29 		1.2
v 0.402 		27.5 		1.2
v 1.5 		26.402 		1.2
v 3 		26 		1.2
v 4.5 		26.402 		1.2
v 5.401 		24.841 		-0.3
v 5.598 		27.5 		1.2
v 6 		29 		1.2
v 5.598 		30.5 		1.2
v 4.5 		31.598 		1.2
v 4.501 		26.4 		0
v -5 		21.974 		0
v 0.499 		24.668 		1.3
v 9.928 		25 		-0.3
v -4.026 		21 		0
v -2.5 		19.474 		0
v 7 		35.928 		1.3
v 3 		26 		0
v 7 		22.072 		-0.3
v 3 		21 		-0.3
v 4.5 		26.402 		0
v 5.6 		27.499 		0
v 7.001 		35.93 		1.375
v 5.598 		27.5 		0
v 6 		29 		0
v 5.6 		30.501 		0
v -2.5 		19.474 		1.3
v 11 		29 		1.3
v 9.928 		33 		1.3
v 0.599 		24.841 		-0.003
v 3 		24.197 		-0.003
v 5.598 		30.5 		0
v 4.501 		31.6 		0
v 0.499 		24.668 		-0.003
v 4.5 		31.598 		0
v 5.5 		24.67 		1.3
v 9.93 		33.001 		1.375
v -2.003 		29 		1.3
v 11.003 		29 		1.375
v 3 		32 		0
v 5.401 		24.841 		-0.003
v 1.499 		31.6 		0
v 9.928 		25 		1.3
v 1.5 		31.598 		0
v 0.4 		30.501 		0
v 5.501 		24.668 		-0.003
v 0.402 		30.5 		0
v 3 		23.998 		-0.003
v 0 		29 		0
v 3 		21 		1.3
v 7 		22.072 		1.3
v -1.332 		31.501 		1.3
v 0.4 		27.499 		0
v 0.402 		27.5 		0
v 1.499 		26.4 		0
v -1.33 		31.5 		0
v -2 		29 		0
v 1.5 		26.402 		0
v 0.599 		33.159 		-0.3
v 3 		33.802 		-0.3
v 3 		44 		1.3
v 5.401 		33.159 		-0.3
v 3 		40 		1.3
v 7.159 		31.401 		-0.3
v 7.803 		29 		-0.3
v 7.159 		26.599 		-0.3
v 3 		40 		1.375
v 3 		37 		-0.3
v 7 		35.928 		-0.3
v 9.928 		33 		-0.3
v 11 		29 		-0.3
v 3 		34.003 		1.3
v 0.599 		33.159 		-0.003
v 3 		33.802 		-0.003
v 0.499 		33.332 		-0.003
v 5.401 		33.159 		-0.003
v 7.159 		31.401 		-0.003
v 5.501 		33.332 		-0.003
v 7.803 		29 		-0.003
v 7.332 		31.501 		-0.003
v 7.159 		26.599 		-0.003
v 18 		29 		1.3
v 15.99 		36.5 		1.3
v 14 		29 		1.3
v 18 		29 		0
v 15.99 		36.5 		0
v 7.332 		26.499 		-0.003
v 10.5 		41.99 		1.3
v 10.5 		41.99 		0
v 3 		34.003 		-0.003
v 8.002 		29 		-0.003
v 14 		29 		1.375
v -1.332 		26.499 		1.3
v -1.33 		31.5 		1.3
v -2 		29 		1.3
# 253 vertices

g group_0_1650274

usemtl color_1650274
s 0

f 248 	236 	47
f 186 	187 	53
f 61 	154 	56
f 178 	56 	155
f 18 	186 	53
f 62 	63 	49
f 51 	49 	63
f 46 	61 	49
f 62 	49 	61
f 54 	75 	91
f 233 	248 	19
f 142 	233 	210
f 63 	75 	54
f 112 	75 	63
f 61 	114 	62
f 18 	249 	39
f 114 	61 	97
f 61 	56 	97
f 178 	208 	56
f 46 	105 	188
f 188 	105 	122
f 238 	249 	53
f 116 	105 	46
f 116 	46 	49
f 113 	112 	62
f 63 	62 	112
f 113 	62 	114
f 236 	238 	53
f 116 	143 	105
f 51 	131 	116
f 51 	116 	49
f 142 	143 	131
f 51 	231 	131
f 142 	131 	231
f 142 	196 	143
f 122 	105 	143
f 116 	131 	143
f 186 	39 	201
f 141 	208 	146
f 201 	146 	209
f 155 	56 	154
f 46 	154 	61
f 146 	201 	39
f 172 	177 	164
f 18 	39 	186
f 155 	164 	177
f 177 	178 	155
f 208 	178 	177
f 209 	177 	201
f 172 	201 	177
f 229 	186 	172
f 154 	188 	189
f 154 	189 	155
f 189 	188 	206
f 192 	206 	188
f 186 	228 	187
f 46 	188 	154
f 171 	141 	192
f 141 	206 	192
f 122 	251 	192
f 192 	188 	122
f 114 	196 	113
f 155 	189 	199
f 155 	199 	164
f 172 	186 	201
f 245 	204 	146
f 146 	39 	245
f 206 	146 	204
f 141 	171 	208
f 245 	199 	204
f 204 	199 	206
f 189 	206 	199
f 19 	230 	75
f 210 	19 	112
f 206 	141 	146
f 209 	146 	208
f 112 	196 	210
f 208 	177 	209
f 75 	112 	19
f 97 	56 	208
f 51 	63 	217
f 54 	217 	63
f 220 	228 	222
f 223 	222 	228
f 229 	172 	223
f 164 	224 	172
f 227 	220 	226
f 228 	220 	227
f 220 	218 	226
f 218 	217 	226
f 54 	226 	217
f 228 	229 	223
f 224 	223 	172
f 229 	228 	186
f 175 	187 	227
f 91 	75 	230
f 47 	175 	230
f 91 	230 	175
f 187 	228 	227
f 47 	230 	248
f 187 	175 	47
f 91 	175 	226
f 187 	47 	53
f 227 	226 	175
f 226 	54 	91
f 217 	231 	51
f 218 	232 	231
f 218 	231 	217
f 19 	210 	233
f 230 	19 	248
f 142 	231 	233
f 232 	248 	231
f 220 	234 	232
f 220 	232 	218
f 234 	248 	232
f 222 	235 	234
f 222 	234 	220
f 47 	236 	53
f 248 	234 	236
f 235 	238 	234
f 223 	237 	235
f 223 	235 	222
f 236 	234 	238
f 237 	249 	235
f 224 	239 	237
f 224 	237 	223
f 239 	249 	237
f 239 	224 	199
f 164 	199 	224
f 249 	239 	245
f 199 	245 	239
f 233 	231 	248
f 18 	53 	249
f 245 	39 	249
f 238 	235 	249
f 112 	113 	196
f 97 	171 	114
f 196 	114 	251
f 251 	114 	171
f 97 	208 	171
f 196 	142 	210
f 171 	192 	251
f 251 	122 	196
f 122 	143 	196
# 144 faces

g group_0_2829873

usemtl color_2829873
s 0

f 11 	16 	9
f 12 	9 	13
f 5 	33 	10
f 21 	10 	20
f 32 	4 	5
f 20 	10 	33
f 33 	5 	4
f 67 	88 	55
f 145 	66 	138
f 67 	55 	66
f 71 	81 	69
f 59 	69 	81
f 57 	77 	72
f 57 	58 	77
f 72 	77 	71
f 57 	72 	90
f 65 	59 	81
f 80 	71 	77
f 81 	71 	80
f 55 	89 	78
f 93 	78 	87
f 89 	55 	88
f 86 	78 	89
f 87 	78 	86
f 70 	78 	94
f 93 	94 	78
f 90 	98 	57
f 98 	99 	57
f 197 	101 	103
f 65 	117 	59
f 102 	135 	59
f 85 	109 	58
f 118 	103 	110
f 104 	117 	110
f 58 	108 	77
f 58 	109 	108
f 107 	77 	108
f 104 	59 	117
f 118 	110 	117
f 107 	15 	80
f 107 	80 	77
f 117 	121 	120
f 117 	120 	118
f 103 	126 	125
f 118 	120 	127
f 126 	103 	127
f 118 	127 	103
f 139 	100 	132
f 59 	135 	69
f 134 	100 	140
f 125 	242 	103
f 139 	140 	100
f 137 	144 	134
f 121 	117 	65
f 136 	134 	140
f 136 	137 	134
f 71 	69 	135
f 71 	135 	5
f 138 	66 	55
f 144 	145 	138
f 10 	72 	5
f 5 	72 	71
f 138 	134 	144
f 10 	90 	72
f 110 	101 	78
f 134 	195 	181
f 99 	98 	181
f 100 	181 	98
f 80 	15 	123
f 80 	123 	81
f 100 	134 	181
f 65 	81 	185
f 123 	185 	81
f 185 	121 	65
f 138 	197 	134
f 195 	134 	197
f 55 	78 	101
f 104 	70 	59
f 102 	59 	70
f 135 	102 	170
f 110 	70 	104
f 138 	101 	197
f 70 	110 	78
f 22 	23 	90
f 21 	22 	10
f 55 	101 	138
f 98 	130 	100
f 27 	153 	90
f 99 	58 	57
f 90 	10 	22
f 23 	27 	90
f 90 	153 	98
f 130 	132 	100
f 181 	16 	99
f 148 	98 	153
f 130 	98 	148
f 58 	99 	225
f 174 	102 	94
f 221 	225 	14
f 16 	14 	225
f 221 	85 	58
f 221 	58 	225
f 170 	102 	173
f 70 	94 	102
f 173 	102 	28
f 28 	102 	174
f 170 	31 	135
f 5 	135 	32
f 31 	32 	135
f 195 	13 	181
f 225 	99 	16
f 16 	181 	13
f 197 	13 	195
f 103 	250 	197
f 110 	103 	101
f 13 	197 	250
f 103 	242 	250
f 242 	12 	13
f 242 	13 	250
f 14 	16 	11
f 13 	9 	16
# 121 faces

g group_0_15277357

usemtl color_15277357
s 0

f 159 	160 	158
f 157 	158 	160
f 160 	161 	157
f 156 	157 	161
f 156 	161 	162
f 156 	162 	163
f 165 	168 	163
f 166 	167 	165
f 168 	165 	167
f 156 	163 	168
f 162 	176 	179
f 162 	179 	163
f 179 	182 	165
f 179 	165 	163
f 182 	183 	166
f 182 	166 	165
f 183 	190 	167
f 183 	167 	166
f 190 	193 	168
f 190 	168 	167
f 193 	198 	156
f 193 	156 	168
f 198 	202 	157
f 198 	157 	156
f 202 	205 	158
f 202 	158 	157
f 205 	207 	159
f 205 	159 	158
f 159 	207 	212
f 159 	212 	160
f 212 	216 	161
f 212 	161 	160
f 176 	162 	161
f 176 	161 	216
f 207 	205 	212
f 216 	212 	205
f 205 	202 	216
f 176 	216 	202
f 176 	202 	198
f 176 	198 	193
f 190 	179 	193
f 183 	182 	190
f 179 	190 	182
f 176 	193 	179
# 44 faces

g group_0_16448250

usemtl color_16448250
s 0

f 3 	4 	2
f 1 	2 	4
f 8 	15 	7
f 6 	7 	15
f 15 	107 	6
f 3 	2 	7
f 3 	7 	6
f 7 	2 	1
f 7 	1 	8
f 150 	151 	41
f 150 	41 	38
f 107 	108 	6
f 3 	6 	36
f 35 	36 	6
f 35 	6 	108
f 109 	35 	108
f 85 	35 	109
f 120 	152 	127
f 121 	152 	120
f 149 	96 	152
f 15 	8 	123
f 95 	125 	126
f 127 	95 	126
f 95 	127 	152
f 242 	125 	95
f 41 	151 	121
f 36 	147 	148
f 149 	150 	94
f 38 	94 	150
f 94 	93 	149
f 151 	152 	121
f 151 	150 	149
f 151 	149 	152
f 148 	153 	36
f 153 	27 	36
f 36 	21 	3
f 95 	152 	96
f 3 	21 	20
f 3 	20 	33
f 3 	33 	4
f 36 	27 	23
f 36 	23 	22
f 36 	22 	21
f 32 	31 	1
f 4 	32 	1
f 31 	170 	1
f 28 	38 	173
f 174 	38 	28
f 38 	1 	173
f 173 	1 	170
f 38 	174 	94
f 38 	41 	1
f 8 	1 	41
f 123 	8 	185
f 41 	185 	8
f 121 	185 	41
f 149 	86 	96
f 87 	86 	149
f 93 	87 	149
f 67 	96 	88
f 66 	96 	67
f 145 	96 	66
f 88 	96 	89
f 89 	96 	86
f 219 	35 	221
f 147 	36 	35
f 147 	35 	219
f 221 	35 	85
f 240 	241 	242
f 95 	240 	242
f 243 	240 	96
f 95 	96 	240
f 243 	244 	241
f 243 	241 	240
f 14 	246 	221
f 219 	221 	246
f 247 	147 	219
f 247 	219 	246
f 96 	145 	243
f 244 	243 	145
f 145 	144 	244
f 244 	136 	247
f 144 	137 	244
f 137 	136 	244
f 246 	9 	241
f 241 	12 	242
f 132 	247 	139
f 130 	247 	132
f 139 	247 	140
f 247 	246 	244
f 241 	244 	246
f 140 	247 	136
f 148 	247 	130
f 147 	247 	148
f 11 	246 	14
f 9 	246 	11
f 12 	241 	9
# 97 faces

g group_0_16768282

usemtl color_16768282
s 0

f 48 	50 	169
f 43 	119 	42
f 34 	124 	42
f 17 	169 	50
f 60 	44 	52
f 44 	60 	42
f 43 	42 	68
f 60 	68 	42
f 40 	74 	73
f 44 	124 	76
f 50 	74 	40
f 82 	83 	64
f 76 	64 	83
f 37 	92 	26
f 82 	92 	83
f 45 	92 	82
f 83 	37 	76
f 34 	42 	119
f 92 	37 	83
f 44 	42 	124
f 124 	128 	76
f 64 	76 	128
f 129 	82 	64
f 194 	82 	133
f 76 	52 	44
f 76 	37 	52
f 106 	79 	17
f 106 	213 	111
f 64 	128 	26
f 29 	203 	30
f 180 	129 	26
f 115 	203 	200
f 115 	200 	119
f 119 	200 	34
f 124 	34 	84
f 124 	184 	128
f 184 	26 	128
f 64 	26 	129
f 169 	133 	180
f 169 	17 	133
f 17 	79 	133
f 129 	180 	133
f 184 	191 	37
f 84 	200 	60
f 68 	60 	200
f 111 	25 	106
f 79 	74 	133
f 129 	133 	82
f 124 	191 	184
f 79 	106 	74
f 74 	106 	73
f 25 	73 	106
f 194 	133 	74
f 191 	124 	84
f 84 	34 	200
f 48 	194 	50
f 74 	50 	194
f 215 	29 	24
f 194 	45 	82
f 115 	30 	203
f 211 	24 	29
f 45 	194 	48
f 211 	29 	111
f 30 	111 	29
f 73 	25 	40
f 24 	40 	25
f 68 	200 	214
f 211 	111 	213
f 40 	213 	50
f 213 	106 	17
f 180 	45 	169
f 92 	45 	26
f 52 	191 	60
f 84 	60 	191
f 52 	37 	191
f 203 	214 	200
f 203 	29 	214
f 215 	214 	29
f 211 	213 	24
f 40 	24 	213
f 17 	50 	213
f 37 	26 	184
f 180 	26 	45
f 48 	169 	45
f 30 	25 	111
f 43 	252 	119
f 253 	30 	252
f 115 	119 	252
f 115 	252 	30
f 25 	30 	253
f 214 	252 	68
f 43 	68 	252
f 253 	214 	215
f 214 	253 	252
f 24 	25 	215
f 253 	215 	25
# 96 faces

 #end of obj_0

